name: Fournisseurs
description: |-

  APIs pour la gestion des fournisseurs
endpoints:
  -
    httpMethods:
      - GET
    uri: api/fournisseurs
    metadata:
      groupName: Fournisseurs
      groupDescription: |-

        APIs pour la gestion des fournisseurs
      subgroup: ''
      subgroupDescription: ''
      title: 'Liste des fournisseurs'
      description: 'Récupère la liste paginée des fournisseurs avec possibilité de filtrage.'
      authenticated: false
      deprecated: false
      custom: []
    headers:
      Content-Type: application/json
      Accept: application/json
    urlParameters: []
    cleanUrlParameters: []
    queryParameters:
      page:
        name: page
        description: 'Numéro de la page.'
        required: false
        example: 1
        type: integer
        enumValues: []
        exampleWasSpecified: true
        nullable: false
        custom: []
      per_page:
        name: per_page
        description: "Nombre d'éléments par page (max 100)."
        required: false
        example: 15
        type: integer
        enumValues: []
        exampleWasSpecified: true
        nullable: false
        custom: []
      search:
        name: search
        description: 'Recherche par nom, code ou email.'
        required: false
        example: ACME
        type: string
        enumValues: []
        exampleWasSpecified: true
        nullable: false
        custom: []
      city:
        name: city
        description: 'Filtrer par ville.'
        required: false
        example: Paris
        type: string
        enumValues: []
        exampleWasSpecified: true
        nullable: false
        custom: []
      is_active:
        name: is_active
        description: 'Filtrer par statut actif (true/false).'
        required: false
        example: true
        type: boolean
        enumValues: []
        exampleWasSpecified: true
        nullable: false
        custom: []
      sort_by:
        name: sort_by
        description: 'Champ de tri (name, code, created_at).'
        required: false
        example: name
        type: string
        enumValues: []
        exampleWasSpecified: true
        nullable: false
        custom: []
      sort_order:
        name: sort_order
        description: 'Ordre de tri (asc, desc).'
        required: false
        example: asc
        type: string
        enumValues: []
        exampleWasSpecified: true
        nullable: false
        custom: []
      with_trashed:
        name: with_trashed
        description: 'Inclure les fournisseurs supprimés.'
        required: false
        example: false
        type: boolean
        enumValues: []
        exampleWasSpecified: true
        nullable: false
        custom: []
    cleanQueryParameters:
      page: 1
      per_page: 15
      search: ACME
      city: Paris
      is_active: true
      sort_by: name
      sort_order: asc
      with_trashed: false
    bodyParameters: []
    cleanBodyParameters: []
    fileParameters: []
    responses:
      -
        status: 200
        content: |-
          {
            "data": [
              {
                "fournisseur_id": "550e8400-e29b-41d4-a716-446655440000",
                "code": "FRN-ABC123",
                "name": "ACME Corporation",
                "responsable": "John Doe",
                "adresse": "123 Main Street",
                "city": "Paris",
                "phone": "+33123456789",
                "email": "contact@acme.com",
                "payment_terms": "30 jours",
                "is_active": true,
                "created_at": "2023-01-01T00:00:00.000000Z",
                "updated_at": "2023-01-01T00:00:00.000000Z",
                "deleted_at": null
              }
            ],
            "links": {
              "first": "http://api.example.com/fournisseurs?page=1",
              "last": "http://api.example.com/fournisseurs?page=10",
              "prev": null,
              "next": "http://api.example.com/fournisseurs?page=2"
            },
            "meta": {
              "current_page": 1,
              "from": 1,
              "last_page": 10,
              "per_page": 15,
              "to": 15,
              "total": 150
            }
          }
        headers: []
        description: ''
        custom: []
    responseFields: []
    auth: []
    controller: null
    method: null
    route: null
    custom: []
  -
    httpMethods:
      - POST
    uri: api/fournisseurs
    metadata:
      groupName: Fournisseurs
      groupDescription: |-

        APIs pour la gestion des fournisseurs
      subgroup: ''
      subgroupDescription: ''
      title: 'Créer un fournisseur'
      description: 'Crée un nouveau fournisseur dans le système.'
      authenticated: false
      deprecated: false
      custom: []
    headers:
      Content-Type: application/json
      Accept: application/json
    urlParameters: []
    cleanUrlParameters: []
    queryParameters: []
    cleanQueryParameters: []
    bodyParameters:
      name:
        name: name
        description: 'Nom du fournisseur.'
        required: true
        example: 'ACME Corporation'
        type: string
        enumValues: []
        exampleWasSpecified: true
        nullable: false
        custom: []
      responsable:
        name: responsable
        description: 'Personne responsable.'
        required: false
        example: 'John Doe'
        type: string
        enumValues: []
        exampleWasSpecified: true
        nullable: true
        custom: []
      adresse:
        name: adresse
        description: 'Adresse du fournisseur.'
        required: false
        example: '123 Main Street'
        type: string
        enumValues: []
        exampleWasSpecified: true
        nullable: true
        custom: []
      city:
        name: city
        description: Ville.
        required: false
        example: Paris
        type: string
        enumValues: []
        exampleWasSpecified: true
        nullable: true
        custom: []
      phone:
        name: phone
        description: 'Numéro de téléphone.'
        required: false
        example: '+33123456789'
        type: string
        enumValues: []
        exampleWasSpecified: true
        nullable: true
        custom: []
      email:
        name: email
        description: 'Email (doit être unique).'
        required: false
        example: contact@acme.com
        type: string
        enumValues: []
        exampleWasSpecified: true
        nullable: true
        custom: []
      payment_terms:
        name: payment_terms
        description: 'Conditions de paiement.'
        required: false
        example: '30 jours'
        type: string
        enumValues: []
        exampleWasSpecified: true
        nullable: true
        custom: []
      is_active:
        name: is_active
        description: 'Statut actif (par défaut: true).'
        required: false
        example: true
        type: boolean
        enumValues: []
        exampleWasSpecified: true
        nullable: false
        custom: []
    cleanBodyParameters:
      name: 'ACME Corporation'
      responsable: 'John Doe'
      adresse: '123 Main Street'
      city: Paris
      phone: '+33123456789'
      email: contact@acme.com
      payment_terms: '30 jours'
      is_active: true
    fileParameters: []
    responses:
      -
        status: 201
        content: |-
          {
            "fournisseur_id": "550e8400-e29b-41d4-a716-446655440000",
            "code": "FRN-ABC123",
            "name": "ACME Corporation",
            "responsable": "John Doe",
            "adresse": "123 Main Street",
            "city": "Paris",
            "phone": "+33123456789",
            "email": "contact@acme.com",
            "payment_terms": "30 jours",
            "is_active": true,
            "created_at": "2023-01-01T00:00:00.000000Z",
            "updated_at": "2023-01-01T00:00:00.000000Z",
            "deleted_at": null
          }
        headers: []
        description: ''
        custom: []
      -
        status: 422
        content: |-
          {
            "message": "Les données fournies ne sont pas valides.",
            "errors": {
              "name": ["Le nom est obligatoire."],
              "email": ["Cette adresse email est déjà utilisée."]
            }
          }
        headers: []
        description: ''
        custom: []
    responseFields: []
    auth: []
    controller: null
    method: null
    route: null
    custom: []
  -
    httpMethods:
      - GET
    uri: 'api/fournisseurs/{id}'
    metadata:
      groupName: Fournisseurs
      groupDescription: |-

        APIs pour la gestion des fournisseurs
      subgroup: ''
      subgroupDescription: ''
      title: 'Afficher un fournisseur'
      description: "Récupère les détails d'un fournisseur spécifique."
      authenticated: false
      deprecated: false
      custom: []
    headers:
      Content-Type: application/json
      Accept: application/json
    urlParameters:
      id:
        name: id
        description: "L'ID du fournisseur."
        required: true
        example: 550e8400-e29b-41d4-a716-446655440000
        type: string
        enumValues: []
        exampleWasSpecified: true
        nullable: false
        custom: []
    cleanUrlParameters:
      id: 550e8400-e29b-41d4-a716-446655440000
    queryParameters:
      with_trashed:
        name: with_trashed
        description: 'Inclure même si supprimé.'
        required: false
        example: false
        type: boolean
        enumValues: []
        exampleWasSpecified: true
        nullable: false
        custom: []
    cleanQueryParameters:
      with_trashed: false
    bodyParameters: []
    cleanBodyParameters: []
    fileParameters: []
    responses:
      -
        status: 200
        content: |-
          {
            "fournisseur_id": "550e8400-e29b-41d4-a716-446655440000",
            "code": "FRN-ABC123",
            "name": "ACME Corporation",
            "responsable": "John Doe",
            "adresse": "123 Main Street",
            "city": "Paris",
            "phone": "+33123456789",
            "email": "contact@acme.com",
            "payment_terms": "30 jours",
            "is_active": true,
            "created_at": "2023-01-01T00:00:00.000000Z",
            "updated_at": "2023-01-01T00:00:00.000000Z",
            "deleted_at": null
          }
        headers: []
        description: ''
        custom: []
      -
        status: 404
        content: |-
          {
            "message": "Fournisseur non trouvé."
          }
        headers: []
        description: ''
        custom: []
    responseFields: []
    auth: []
    controller: null
    method: null
    route: null
    custom: []
  -
    httpMethods:
      - PUT
    uri: 'api/fournisseurs/{id}'
    metadata:
      groupName: Fournisseurs
      groupDescription: |-

        APIs pour la gestion des fournisseurs
      subgroup: ''
      subgroupDescription: ''
      title: 'Mettre à jour un fournisseur'
      description: "Met à jour les informations d'un fournisseur existant."
      authenticated: false
      deprecated: false
      custom: []
    headers:
      Content-Type: application/json
      Accept: application/json
    urlParameters:
      id:
        name: id
        description: "L'ID du fournisseur."
        required: true
        example: 550e8400-e29b-41d4-a716-446655440000
        type: string
        enumValues: []
        exampleWasSpecified: true
        nullable: false
        custom: []
    cleanUrlParameters:
      id: 550e8400-e29b-41d4-a716-446655440000
    queryParameters: []
    cleanQueryParameters: []
    bodyParameters:
      name:
        name: name
        description: 'Nom du fournisseur.'
        required: false
        example: 'ACME Corporation'
        type: string
        enumValues: []
        exampleWasSpecified: true
        nullable: false
        custom: []
      responsable:
        name: responsable
        description: 'Personne responsable.'
        required: false
        example: 'John Doe'
        type: string
        enumValues: []
        exampleWasSpecified: true
        nullable: true
        custom: []
      adresse:
        name: adresse
        description: 'Adresse du fournisseur.'
        required: false
        example: '123 Main Street'
        type: string
        enumValues: []
        exampleWasSpecified: true
        nullable: true
        custom: []
      city:
        name: city
        description: Ville.
        required: false
        example: Paris
        type: string
        enumValues: []
        exampleWasSpecified: true
        nullable: true
        custom: []
      phone:
        name: phone
        description: 'Numéro de téléphone.'
        required: false
        example: '+33123456789'
        type: string
        enumValues: []
        exampleWasSpecified: true
        nullable: true
        custom: []
      email:
        name: email
        description: 'Email (doit être unique).'
        required: false
        example: contact@acme.com
        type: string
        enumValues: []
        exampleWasSpecified: true
        nullable: true
        custom: []
      payment_terms:
        name: payment_terms
        description: 'Conditions de paiement.'
        required: false
        example: '30 jours'
        type: string
        enumValues: []
        exampleWasSpecified: true
        nullable: true
        custom: []
      is_active:
        name: is_active
        description: 'Statut actif.'
        required: false
        example: true
        type: boolean
        enumValues: []
        exampleWasSpecified: true
        nullable: false
        custom: []
    cleanBodyParameters:
      name: 'ACME Corporation'
      responsable: 'John Doe'
      adresse: '123 Main Street'
      city: Paris
      phone: '+33123456789'
      email: contact@acme.com
      payment_terms: '30 jours'
      is_active: true
    fileParameters: []
    responses:
      -
        status: 200
        content: |-
          {
            "fournisseur_id": "550e8400-e29b-41d4-a716-446655440000",
            "code": "FRN-ABC123",
            "name": "ACME Corporation Updated",
            "responsable": "Jane Doe",
            "adresse": "456 New Street",
            "city": "Lyon",
            "phone": "+33987654321",
            "email": "contact@acme.com",
            "payment_terms": "45 jours",
            "is_active": true,
            "created_at": "2023-01-01T00:00:00.000000Z",
            "updated_at": "2023-01-02T00:00:00.000000Z",
            "deleted_at": null
          }
        headers: []
        description: ''
        custom: []
      -
        status: 404
        content: |-
          {
            "message": "Fournisseur non trouvé."
          }
        headers: []
        description: ''
        custom: []
      -
        status: 422
        content: |-
          {
            "message": "Les données fournies ne sont pas valides.",
            "errors": {
              "email": ["Cette adresse email est déjà utilisée."]
            }
          }
        headers: []
        description: ''
        custom: []
    responseFields: []
    auth: []
    controller: null
    method: null
    route: null
    custom: []
  -
    httpMethods:
      - PATCH
    uri: 'api/fournisseurs/{id}'
    metadata:
      groupName: Fournisseurs
      groupDescription: |-

        APIs pour la gestion des fournisseurs
      subgroup: ''
      subgroupDescription: ''
      title: 'Mettre à jour un fournisseur'
      description: "Met à jour les informations d'un fournisseur existant."
      authenticated: false
      deprecated: false
      custom: []
    headers:
      Content-Type: application/json
      Accept: application/json
    urlParameters:
      id:
        name: id
        description: "L'ID du fournisseur."
        required: true
        example: 550e8400-e29b-41d4-a716-446655440000
        type: string
        enumValues: []
        exampleWasSpecified: true
        nullable: false
        custom: []
    cleanUrlParameters:
      id: 550e8400-e29b-41d4-a716-446655440000
    queryParameters: []
    cleanQueryParameters: []
    bodyParameters:
      name:
        name: name
        description: 'Nom du fournisseur.'
        required: false
        example: 'ACME Corporation'
        type: string
        enumValues: []
        exampleWasSpecified: true
        nullable: false
        custom: []
      responsable:
        name: responsable
        description: 'Personne responsable.'
        required: false
        example: 'John Doe'
        type: string
        enumValues: []
        exampleWasSpecified: true
        nullable: true
        custom: []
      adresse:
        name: adresse
        description: 'Adresse du fournisseur.'
        required: false
        example: '123 Main Street'
        type: string
        enumValues: []
        exampleWasSpecified: true
        nullable: true
        custom: []
      city:
        name: city
        description: Ville.
        required: false
        example: Paris
        type: string
        enumValues: []
        exampleWasSpecified: true
        nullable: true
        custom: []
      phone:
        name: phone
        description: 'Numéro de téléphone.'
        required: false
        example: '+33123456789'
        type: string
        enumValues: []
        exampleWasSpecified: true
        nullable: true
        custom: []
      email:
        name: email
        description: 'Email (doit être unique).'
        required: false
        example: contact@acme.com
        type: string
        enumValues: []
        exampleWasSpecified: true
        nullable: true
        custom: []
      payment_terms:
        name: payment_terms
        description: 'Conditions de paiement.'
        required: false
        example: '30 jours'
        type: string
        enumValues: []
        exampleWasSpecified: true
        nullable: true
        custom: []
      is_active:
        name: is_active
        description: 'Statut actif.'
        required: false
        example: true
        type: boolean
        enumValues: []
        exampleWasSpecified: true
        nullable: false
        custom: []
    cleanBodyParameters:
      name: 'ACME Corporation'
      responsable: 'John Doe'
      adresse: '123 Main Street'
      city: Paris
      phone: '+33123456789'
      email: contact@acme.com
      payment_terms: '30 jours'
      is_active: true
    fileParameters: []
    responses:
      -
        status: 200
        content: |-
          {
            "fournisseur_id": "550e8400-e29b-41d4-a716-446655440000",
            "code": "FRN-ABC123",
            "name": "ACME Corporation Updated",
            "responsable": "Jane Doe",
            "adresse": "456 New Street",
            "city": "Lyon",
            "phone": "+33987654321",
            "email": "contact@acme.com",
            "payment_terms": "45 jours",
            "is_active": true,
            "created_at": "2023-01-01T00:00:00.000000Z",
            "updated_at": "2023-01-02T00:00:00.000000Z",
            "deleted_at": null
          }
        headers: []
        description: ''
        custom: []
      -
        status: 404
        content: |-
          {
            "message": "Fournisseur non trouvé."
          }
        headers: []
        description: ''
        custom: []
      -
        status: 422
        content: |-
          {
            "message": "Les données fournies ne sont pas valides.",
            "errors": {
              "email": ["Cette adresse email est déjà utilisée."]
            }
          }
        headers: []
        description: ''
        custom: []
    responseFields: []
    auth: []
    controller: null
    method: null
    route: null
    custom: []
  -
    httpMethods:
      - DELETE
    uri: 'api/fournisseurs/{id}'
    metadata:
      groupName: Fournisseurs
      groupDescription: |-

        APIs pour la gestion des fournisseurs
      subgroup: ''
      subgroupDescription: ''
      title: 'Supprimer un fournisseur'
      description: 'Supprime définitivement un fournisseur (soft delete).'
      authenticated: false
      deprecated: false
      custom: []
    headers:
      Content-Type: application/json
      Accept: application/json
    urlParameters:
      id:
        name: id
        description: "L'ID du fournisseur."
        required: true
        example: 550e8400-e29b-41d4-a716-446655440000
        type: string
        enumValues: []
        exampleWasSpecified: true
        nullable: false
        custom: []
    cleanUrlParameters:
      id: 550e8400-e29b-41d4-a716-446655440000
    queryParameters: []
    cleanQueryParameters: []
    bodyParameters: []
    cleanBodyParameters: []
    fileParameters: []
    responses:
      -
        status: 204
        content: '{}'
        headers: []
        description: ''
        custom: []
      -
        status: 404
        content: |-
          {
            "message": "Fournisseur non trouvé."
          }
        headers: []
        description: ''
        custom: []
    responseFields: []
    auth: []
    controller: null
    method: null
    route: null
    custom: []
  -
    httpMethods:
      - PATCH
    uri: 'api/fournisseurs/{id}/restore'
    metadata:
      groupName: Fournisseurs
      groupDescription: |-

        APIs pour la gestion des fournisseurs
      subgroup: ''
      subgroupDescription: ''
      title: 'Restaurer un fournisseur'
      description: 'Restaure un fournisseur précédemment supprimé.'
      authenticated: false
      deprecated: false
      custom: []
    headers:
      Content-Type: application/json
      Accept: application/json
    urlParameters:
      id:
        name: id
        description: "L'ID du fournisseur."
        required: true
        example: 550e8400-e29b-41d4-a716-446655440000
        type: string
        enumValues: []
        exampleWasSpecified: true
        nullable: false
        custom: []
    cleanUrlParameters:
      id: 550e8400-e29b-41d4-a716-446655440000
    queryParameters: []
    cleanQueryParameters: []
    bodyParameters: []
    cleanBodyParameters: []
    fileParameters: []
    responses:
      -
        status: 200
        content: |-
          {
            "fournisseur_id": "550e8400-e29b-41d4-a716-446655440000",
            "code": "FRN-ABC123",
            "name": "ACME Corporation",
            "responsable": "John Doe",
            "adresse": "123 Main Street",
            "city": "Paris",
            "phone": "+33123456789",
            "email": "contact@acme.com",
            "payment_terms": "30 jours",
            "is_active": true,
            "created_at": "2023-01-01T00:00:00.000000Z",
            "updated_at": "2023-01-02T00:00:00.000000Z",
            "deleted_at": null
          }
        headers: []
        description: ''
        custom: []
      -
        status: 404
        content: |-
          {
            "message": "Fournisseur non trouvé."
          }
        headers: []
        description: ''
        custom: []
    responseFields: []
    auth: []
    controller: null
    method: null
    route: null
    custom: []
  -
    httpMethods:
      - DELETE
    uri: 'api/fournisseurs/{id}/force'
    metadata:
      groupName: Fournisseurs
      groupDescription: |-

        APIs pour la gestion des fournisseurs
      subgroup: ''
      subgroupDescription: ''
      title: 'Suppression définitive'
      description: 'Supprime définitivement un fournisseur de la base de données.'
      authenticated: false
      deprecated: false
      custom: []
    headers:
      Content-Type: application/json
      Accept: application/json
    urlParameters:
      id:
        name: id
        description: "L'ID du fournisseur."
        required: true
        example: 550e8400-e29b-41d4-a716-446655440000
        type: string
        enumValues: []
        exampleWasSpecified: true
        nullable: false
        custom: []
    cleanUrlParameters:
      id: 550e8400-e29b-41d4-a716-446655440000
    queryParameters: []
    cleanQueryParameters: []
    bodyParameters: []
    cleanBodyParameters: []
    fileParameters: []
    responses:
      -
        status: 204
        content: '{}'
        headers: []
        description: ''
        custom: []
      -
        status: 404
        content: |-
          {
            "message": "Fournisseur non trouvé."
          }
        headers: []
        description: ''
        custom: []
    responseFields: []
    auth: []
    controller: null
    method: null
    route: null
    custom: []
